Utilisez la commande md5 pour verifier le checksum de vos fichiers
Voici la liste des bios compatibles, avec le nom correspondant, triés par systemes.


- SEGA 32X : 
6a5433f6a132a2b683635819a6dcf085  32X_G_BIOS.BIN
f88354ec482be09aeccd76a97bb75868  32X_M_BIOS.BIN
7f041b6a55cd7423a6c08a219335269e  32X_S_BIOS.BIN


- SEGA MEGA CD :
e66fa1dc5820d254611fdcdba0662372  bios_CD_E.bin
2efd74e3232ff260e371b99f84024f7f  bios_CD_U.bin
278a9397d192149e84e820ac621a8edd  bios_CD_J.bin

- SEGA SATURN (MEDNAFEN_SATURN) :
85ec9ca47d8f6807718151cbcca8b964  sega_101.bin
3240872c70984b6cbfda1586cab68dbe  mpr-17933.bin
255113ba943c92a54facd25a10fd780c  mpr-18811-mx.ic1
1cd19988d1d72a3e7caa0b73234c96b4  mpr-19367-mx.ic1


- SEGA SATURN (YABAUSE/KRONOS/YABASANSHIRO) :
af5828fdff51384f99b3c4926be27762  saturn_bios.bin
53a094ad3a188f86de4e64624fe9b3ca  stvbios.zip


- FAMICOM DISK SYSTEM : 
ca30b50f880eb660a320674ed365ef7a  disksys.rom


- PLAYSTATION :
6E3735FF4C7DC899EE98981385F6F3D0  scph101.bin
dc2b9bf8da62ec93e868cfd29f0d067d  scph1001.bin
8dd7d5296a650fac7319bce665a6a53c  scph5500.bin
490f666e1afb15b7362b406ed1cea246  scph5501.bin
32736f17079d0b2b7024407c39bd3050  scph5502.bin
1e68c231d0896b7eadcad1d7d8e76129  scph7001.bin


- GAMEBOY ADVANCE : 
a860e8c0b6d573d191e4ec7db1b1e4f6  gba_bios.bin


- GAMECUBE :
0cdda509e2da83c85bfe423dd87346cc  gamecube/EUR/IPL.bin
fc924a7c879b661abc37cec4f018fdf3  gamecube/JAP/IPL.bin
339848a0b7c2124cf155276c1e79cbd0  gamecube/USA/IPL.bin


- SUPER GAME BOY :
d574d4f9c12f305074798f54c091a8b4  sgb_bios.bin


- SATELLAVIEW :
fed4d8242cfbed61343d53d48432aced  BS-X.bin


- SUFAMI TURBO :
d3a44ba7d42a74d3ac58cb9c14c6a5ca  STBIOS.bin


- PCENGINE CD : 
ff1a674273fe3540ccef576376407d1d  syscard3.pce


- NEC PC-FX : 
08e36edbea28a017f79f8d4f7ff9b6d7  pcfx.rom


- NEC PC-98 : 
Les fichiers bios doivent être placés dans un sous dossier nommé "np2kai"

7da1e5b7c482d4108d22a5b09631d967  np2kai/font.bmp
38d32748ae49d1815b0614970849fd40  np2kai/FONT.ROM
cd237e16e7e77c06bb58540e9e9fca68  np2kai/bios.rom
72ea51443070f0e9212bfc9b793ee28e  np2kai/itf.rom
524473c1a5a03b17e21d86a0408ff827  np2kai/sound.rom
d94546e70f17fd899be8df3544ab6cbb  np2kai/2608_bd.wav
d71004351c8bbfdad53b18222c061d49  np2kai/2608_sd.wav
593cff6597ab9380d822b8f824fd2c28  np2kai/2608_top.wav
08c54a0c1f774a5538a848a6665a34b4  np2kai/2608_hh.wav
96a4ead13f364734f79b0c58af2f0e1f  np2kai/2608_tom.wav
465ea0768b27da404aec45dfc501404b  np2kai/2608_rim.wav


- FMSX : 
d6dedca1112ddfda94cc9b2e426b818b  CARTS.SHA
85b38e4128bbc300e675f55b278683a8  CYRILLIC.FNT
80dcd1ad1a4cf65d64b7ba10504e8190  DISK.ROM
af8537262df8df267072f359399a7635  FMPAC16.ROM
6f69cc8b5ed761b03afd78000dfb0e19  FMPAC.ROM
c83e50e9f33b8dd893c414691822740d  ITALIC.FNT
febe8782b466d7c3b16de6d104826b34  KANJI.ROM
2183c2aff17cf4297bdb496de78c2e8a  MSX2EXT.ROM
7c8243c71d8f143b2531f01afa6a05dc  MSX2PEXT.ROM
6d8c0ca64e726c82a4b726e9b01cdf1e  MSX2P.ROM
ec3a01c91f24fbddcbcab0ad301bc9ef  MSX2.ROM
6418d091cd6907bbcf940324339e43bb  MSXDOS2.ROM
aa95aea2563cd5ec0a0919b44cc17d47  MSX.ROM
403cdea1cbd2bb24fae506941f8f655e  PAINTER.ROM
279efd1eae0d358eecd4edc7d9adedf3  RS232.ROM


- BLUEMSX (EMULATEUR MSX PAR DEFAUT) :
Merci de lire le fichier "lisezmoi.txt" présent dans le répertoire "/roms/msx" de votre recalbox.


- COLECOVISION :
Merci de lire le fichier "lisezmoi.txt" présent dans le répertoire "/roms/colecovision" de votre recalbox.


- SPECTRAVIDEO :
Merci de lire le fichier "lisezmoi.txt" présent dans le répertoire "/roms/spectravideo" de votre recalbox.


- LYNX :
fcd403db69f54290b51035d82f835e7b  lynxboot.img


- ATARI 7800 :
0763f1ffb006ddbe32e52d497ee848ae  7800 BIOS (U).rom


- ATARI ST : 
b2a8570de2e850c5acf81cb80512d9f6  tos.img


- ODYSSEY2/VIDEOPAC :
562d5ebf9e030a40d6fabfc2f33139fd  o2rom.bin


- DREAMCAST :
e10c53c2f8b90bab96ead2d368858623  dc_boot.bin
0a93f7940c455905bea6e392dfde92a4  dc_flash.bin


- DREAMCAST/NAOMI/ATOMISWAVE (flycast emulator) :
Les fichiers bios doivent être placés dans un sous dossier nommé "dc"

e10c53c2f8b90bab96ead2d368858623  dc/dc_boot.bin
0a93f7940c455905bea6e392dfde92a4  dc/dc_flash.bin
eb4099aeb42ef089cfe94f8fe95e51f6  dc/naomi.zip
9c755171b222fb1f4e1439d5b709dbf1  dc/hod2bios.zip
5e83867c751f692a000afdf658dc181f  dc/f355dlx.zip
f126d318f135f38ee377fef2acf08d7e  dc/f355bios.zip
3f348c88af99a40fbd11fa435f28c69d  dc/airlbios.zip
0ec5ae5b5a5c4959fa8b43fcf8687f7c  dc/awbios.zip


- Nintendo DS (Uniquement X86/X86_64) :
df692a80a5b1bc90728bc3dfc76cd948  bios7.bin
a392174eb3e572fed6447e956bde4b25  bios9.bin
e45033d9b0fa6b0de071292bba7c9d13  firmware.bin


- NEC PC-88 :
22be239bc0c4298bc0561252eed98633  quasi88/n88.rom
e28fe3f520bea594350ea8fb00395370  quasi88/n88_0.rom
e844534dfe5744b381444dbe61ef1b66  quasi88/n88_1.rom
6548fa45061274dee1ea8ae1e9e93910  quasi88/n88_2.rom
fc4b76a402ba501e6ba6de4b3e8b4273  quasi88/n88_3.rom
5d6854624dd01cd791f58727fc43a525  quasi88/n88n.rom
793f86784e5608352a5d7f03f03e0858  quasi88/disk.rom
d81c6d5d7ad1a4bbbd6ae22a01257603  quasi88/n88knj1.rom
41d2e2c0c0edfccf76fa1c3e38bc1cf2  quasi88/n88knj2.rom
2e548679423370262f36cbde38a22789  quasi88/n88jisho.rom


- SHARP X1 :
eeeea1cd29c6e0e8b094790ae969bfa7  xmil/IPLROM.X1
56c28adcf1f3a2f87cf3d57c378013f5  xmil/IPLROM.X1T


- SHARP X68000 :
Les fichiers bios doivent être placés dans un sous dossier nommé "keropi"

7fd4caabac1d9169e289f0f7bbf71d8e  keropi/iplrom.dat
cb0a5cfcf7247a7eab74bb2716260269  keropi/cgrom.dat


- PANASONIC 3DO :
51f2f43ae2f3508a14d9f56597e2d3ce  panafz10.bin


- POKÉMON MINI :
1e4fb124a3a886865acb574f388c803d  bios.min


- Amiga 600 :
85ad74194e87c08904327de1a9443b7a  kick33180.A500
82a21c1890cae844b3df741f2762d48d  kick34005.A500
dc10d7bdd1b6f450773dfb558477c230  kick37175.A500
0b839c665635a249c5736118c68a69a7  kick40063.A600


- Amiga 1200 :
b7cc148386aa631136f510cd29e42fc3  kick39106.A1200
646773759326fbac3b2311fd8c8793ee  kick40068.A1200
9bdedde6a4f33555b4a270c8ca53297d  kick40068.A4000


- Amiga CD32 :
5f8924d013dd57a89cf349f4cdedc6b1  kick40060.CD32
bb72565701b1b6faece07d68ea5da639  kick40060.CD32.ext


- Amiga 600 & 1200 (libretro-uae) :
82a21c1890cae844b3df741f2762d48d  kick34005.A500
dc10d7bdd1b6f450773dfb558477c230  kick37175.A500
0b839c665635a249c5736118c68a69a7  kick40063.A600
646773759326fbac3b2311fd8c8793ee  kick40068.A1200


- ATARI 800 & 5200 :
281f20ea4320404ec820fb7ec0693b38  5200.rom
0bac0c6a50104045d902df4503a4c30b  ATARIBAS.ROM
eb1f32f5d9f382db1bbfb8d7f9cb343a  ATARIOSA.ROM
a3e8d617c95d08031fe1b20d541434b2  ATARIOSB.ROM
06daac977823773a3eea3422fd26a703  ATARIXL.ROM


- MATTEL INTELLIVISION :
62e761035cb657903761800f4437b8af  exec.bin
0cd5946c6473e42e8e4c2137785e427f  grom.bin


- FAIRCHILD CHANNEL F :
da98f4bb3242ab80d76629021bb27585  sl31254.bin
ac9804d4c0e9d07e33472e3726ed15c3  sl31253.bin
95d339631d867c8f1d15a5f2ec26069d  sl90025.bin


- TANGERINE ORIC/ATMOS :
a330779c42ad7d0c4ac6ef9e92788ec6  oricutron/basic11b.rom
ebe418ec8a6c85d5ac32956c9a96c179  oricutron/basic10.rom
2b6498fd29a0adbf1c529762c02c33ab  oricutron/bd500.rom
5136f764a7dbd1352519351fbb53a9f3  oricutron/jasmin.rom
df864344d2a2091c3f952bd1c5ce1707  oricutron/microdis.rom
8712a22e7e078de3343667d9fc1f2390  oricutron/pravetzt.rom
5f3cd5a4307fed7a9dfe8faa4c044273  oricutron/8dos2.rom
2324c9cc227c1327a72a667c97ed2990  oricutron/teleass.rom
364bf095e0dc4222d75354d50b8cddfc  oricutron/hyperbas.rom
9a432244d9ee4a49e8ddcde64af94e05  oricutron/telmon24.rom


- PALM OS :
83cb1d1c76e568b916dc2e7c0bf669f6  palmos41-en-m515.rom
e64c755205bc3e79d1bc5b70128f688d  bootloader-en-m515.rom


- APPLE IIGS :
ba89edf2729a28a17cd9e0f7a0ac9a39  apple2gs.rom


- NINTENDO 64DD :
8d3d9f294b6e174bc7b1d2fd1c727530 64DD_IPL.bin
